{
  "project_info": {
    "project_number": "378027979174",
    "firebase_url": "https://lig-exam-chat-app-44785.firebaseio.com",
    "project_id": "lig-exam-chat-app-44785",
    "storage_bucket": "lig-exam-chat-app-44785.appspot.com"
  },
  "client": [
    {
      "client_info": {
        "mobilesdk_app_id": "1:378027979174:android:0443002190564c6ab6df67",
        "android_client_info": {
          "package_name": "com.example.lig_exam_chat_app"
        }
      },
      "oauth_client": [
        {
          "client_id": "378027979174-dp7bd7hja1k0rl248i9binhvtnh0qeue.apps.googleusercontent.com",
          "client_type": 3
        }
      ],
      "api_key": [
        {
          "current_key": "AIzaSyA7MjuGk1BKctX2BQFowgXzUveN2KEfMME"
        }
      ],
      "services": {
        "appinvite_service": {
          "other_platform_oauth_client": [
            {
              "client_id": "378027979174-dp7bd7hja1k0rl248i9binhvtnh0qeue.apps.googleusercontent.com",
              "client_type": 3
            }
          ]
        }
      }
    }
  ],
  "configuration_version": "1"
}